^D:\Workspace\cocos2d\projects\SinRider-x\SinRider\cocos2d\cocos\2d\libcocos2d.vcxproj
D:\Workspace\cocos2d\projects\SinRider-x\SinRider\proj.win32\Debug.win32\libcocos2d.lib
D:\Workspace\cocos2d\projects\SinRider-x\SinRider\proj.win32\Debug.win32\libcocos2d.exp
