^D:\WORKSPACE\COCOS2D\PROJECTS\SINRIDER-X\SINRIDER\PROJ.WIN32\DEBUG.WIN32\APPDELEGATE.OBJ|D:\WORKSPACE\COCOS2D\PROJECTS\SINRIDER-X\SINRIDER\PROJ.WIN32\DEBUG.WIN32\GAME.RES|D:\WORKSPACE\COCOS2D\PROJECTS\SINRIDER-X\SINRIDER\PROJ.WIN32\DEBUG.WIN32\GAMESCENE.OBJ|D:\WORKSPACE\COCOS2D\PROJECTS\SINRIDER-X\SINRIDER\PROJ.WIN32\DEBUG.WIN32\HELLOWORLDSCENE.OBJ|D:\WORKSPACE\COCOS2D\PROJECTS\SINRIDER-X\SINRIDER\PROJ.WIN32\DEBUG.WIN32\LIBBOX2D.LIB|D:\WORKSPACE\COCOS2D\PROJECTS\SINRIDER-X\SINRIDER\PROJ.WIN32\DEBUG.WIN32\LIBCOCOS2D.LIB|D:\WORKSPACE\COCOS2D\PROJECTS\SINRIDER-X\SINRIDER\PROJ.WIN32\DEBUG.WIN32\LIBSPINE.LIB|D:\WORKSPACE\COCOS2D\PROJECTS\SINRIDER-X\SINRIDER\PROJ.WIN32\DEBUG.WIN32\MAIN.OBJ|D:\WORKSPACE\COCOS2D\PROJECTS\SINRIDER-X\SINRIDER\PROJ.WIN32\DEBUG.WIN32\SINWAVE.OBJ
D:\WORKSPACE\COCOS2D\PROJECTS\SINRIDER-X\SINRIDER\PROJ.WIN32\DEBUG.WIN32\SINRIDER.ILK
D:\WORKSPACE\COCOS2D\PROJECTS\SINRIDER-X\SINRIDER\PROJ.WIN32\DEBUG.WIN32\SINRIDER.EXE
D:\WORKSPACE\COCOS2D\PROJECTS\SINRIDER-X\SINRIDER\PROJ.WIN32\DEBUG.WIN32\SINRIDER.PDB
